verification/tmp.log
[0;34m[INFO][0m  运行快速测试...
make test-node-basic SIMULATOR=verilator NODE_X=3 NODE_Y=3
make[1]: Entering directory '/home/liangmx/maze_mesh/verification'
[0;34m[INFO][0m  开始基本路由功能测试...
  仿真器: verilator
  节点位置: (3, 3)

[0;33m[INFO][0m  使用Verilator编译和运行测试...
==============================================
MAZE节点基本路由功能测试编译脚本
==============================================
仿真器: verilator
测试节点: (3, 3)
项目根目录: /home/liangmx/maze_mesh
验证目录: /home/liangmx/maze_mesh/verification
RTL目录: /home/liangmx/maze_mesh/rtl
脚本目录: /home/liangmx/maze_mesh/verification/scripts/build
==============================================

检查仿真器依赖...
✓ Verilator 检查通过
检查源文件...
✓ 源文件检查通过
清理旧文件...
✓ 清理完成
使用Verilator编译...
- V e r i l a t i o n   R e p o r t: Verilator 5.042 2025-11-02 rev v5.042-51-gd91574507
- Verilator: Built from 0.307 MB sources in 12 modules, into 0.531 MB in 10 C++ files needing 0.000 MB
- Verilator: Walltime 0.047 s (elab=0.005, cvt=0.029, bld=0.000); cpu 0.047 s on 1 threads; alloced 24.855 MB
make[2]: Entering directory '/home/liangmx/maze_mesh/verification/sim/work/build'
g++ -Os  -I.  -MMD -I/usr/local/share/verilator/include -I/usr/local/share/verilator/include/vltstd -DVERILATOR=1 -DVM_COVERAGE=0 -DVM_SC=0 -DVM_TIMING=1 -DVM_TRACE=1 -DVM_TRACE_FST=0 -DVM_TRACE_VCD=1 -DVM_TRACE_SAIF=0 -faligned-new -fcf-protection=none -Wno-bool-operation -Wno-int-in-bool-context -Wno-shadow -Wno-sign-compare -Wno-subobject-linkage -Wno-tautological-compare -Wno-uninitialized -Wno-unused-but-set-parameter -Wno-unused-but-set-variable -Wno-unused-parameter -Wno-unused-variable    -std=c++14 -DVL_TIME_CONTEXT   -fcoroutines -c -o verilated.o /usr/local/share/verilator/include/verilated.cpp
g++ -Os  -I.  -MMD -I/usr/local/share/verilator/include -I/usr/local/share/verilator/include/vltstd -DVERILATOR=1 -DVM_COVERAGE=0 -DVM_SC=0 -DVM_TIMING=1 -DVM_TRACE=1 -DVM_TRACE_FST=0 -DVM_TRACE_VCD=1 -DVM_TRACE_SAIF=0 -faligned-new -fcf-protection=none -Wno-bool-operation -Wno-int-in-bool-context -Wno-shadow -Wno-sign-compare -Wno-subobject-linkage -Wno-tautological-compare -Wno-uninitialized -Wno-unused-but-set-parameter -Wno-unused-but-set-variable -Wno-unused-parameter -Wno-unused-variable    -std=c++14 -DVL_TIME_CONTEXT   -fcoroutines -c -o verilated_vcd_c.o /usr/local/share/verilator/include/verilated_vcd_c.cpp
g++ -Os  -I.  -MMD -I/usr/local/share/verilator/include -I/usr/local/share/verilator/include/vltstd -DVERILATOR=1 -DVM_COVERAGE=0 -DVM_SC=0 -DVM_TIMING=1 -DVM_TRACE=1 -DVM_TRACE_FST=0 -DVM_TRACE_VCD=1 -DVM_TRACE_SAIF=0 -faligned-new -fcf-protection=none -Wno-bool-operation -Wno-int-in-bool-context -Wno-shadow -Wno-sign-compare -Wno-subobject-linkage -Wno-tautological-compare -Wno-uninitialized -Wno-unused-but-set-parameter -Wno-unused-but-set-variable -Wno-unused-parameter -Wno-unused-variable    -std=c++14 -DVL_TIME_CONTEXT   -fcoroutines -c -o verilated_timing.o /usr/local/share/verilator/include/verilated_timing.cpp
g++ -Os  -I.  -MMD -I/usr/local/share/verilator/include -I/usr/local/share/verilator/include/vltstd -DVERILATOR=1 -DVM_COVERAGE=0 -DVM_SC=0 -DVM_TIMING=1 -DVM_TRACE=1 -DVM_TRACE_FST=0 -DVM_TRACE_VCD=1 -DVM_TRACE_SAIF=0 -faligned-new -fcf-protection=none -Wno-bool-operation -Wno-int-in-bool-context -Wno-shadow -Wno-sign-compare -Wno-subobject-linkage -Wno-tautological-compare -Wno-uninitialized -Wno-unused-but-set-parameter -Wno-unused-but-set-variable -Wno-unused-parameter -Wno-unused-variable    -std=c++14 -DVL_TIME_CONTEXT   -fcoroutines -c -o verilated_threads.o /usr/local/share/verilator/include/verilated_threads.cpp
python3 /usr/local/share/verilator/bin/verilator_includer -DVL_INCLUDE_OPT=include Vsimple_test.cpp Vsimple_test___024root__0.cpp Vsimple_test__main.cpp Vsimple_test__Trace__0.cpp Vsimple_test__ConstPool_0.cpp Vsimple_test___024root__Slow.cpp Vsimple_test___024root__0__Slow.cpp Vsimple_test__Syms.cpp Vsimple_test__Trace__0__Slow.cpp Vsimple_test__TraceDecls__0__Slow.cpp > Vsimple_test__ALL.cpp
echo "" > Vsimple_test__ALL.verilator_deplist.tmp
g++ -Os  -I.  -MMD -I/usr/local/share/verilator/include -I/usr/local/share/verilator/include/vltstd -DVERILATOR=1 -DVM_COVERAGE=0 -DVM_SC=0 -DVM_TIMING=1 -DVM_TRACE=1 -DVM_TRACE_FST=0 -DVM_TRACE_VCD=1 -DVM_TRACE_SAIF=0 -faligned-new -fcf-protection=none -Wno-bool-operation -Wno-int-in-bool-context -Wno-shadow -Wno-sign-compare -Wno-subobject-linkage -Wno-tautological-compare -Wno-uninitialized -Wno-unused-but-set-parameter -Wno-unused-but-set-variable -Wno-unused-parameter -Wno-unused-variable    -std=c++14 -DVL_TIME_CONTEXT   -fcoroutines -c -o Vsimple_test__ALL.o Vsimple_test__ALL.cpp
g++    verilated.o verilated_vcd_c.o verilated_timing.o verilated_threads.o Vsimple_test__ALL.a    -pthread -lpthread -latomic   -o Vsimple_test
rm Vsimple_test__ALL.verilator_deplist.tmp
make[2]: Leaving directory '/home/liangmx/maze_mesh/verification/sim/work/build'
✓ Verilator编译成功
生成运行脚本: /home/liangmx/maze_mesh/verification/sim/work/build/run_simple_test.sh
✓ 运行脚本生成完成

==============================================
编译完成
==============================================
仿真器: verilator
测试节点位置: (3, 3)
编译目录: /home/liangmx/maze_mesh/verification/sim/work/build
运行脚本: /home/liangmx/maze_mesh/verification/sim/work/build/run_simple_test.sh

可执行文件: /home/liangmx/maze_mesh/verification/sim/work/build/Vsimple_test
运行命令: /home/liangmx/maze_mesh/verification/sim/work/build/Vsimple_test

使用方法:
  cd /home/liangmx/maze_mesh/verification/sim/work/build
  ./run_simple_test.sh

或直接运行:
  /home/liangmx/maze_mesh/verification/sim/work/build/Vsimple_test

编译成功完成！
==============================================
MAZE节点基本路由功能测试 - DEBUG版本
测试节点: (3, 3)
==============================================
DEBUG: 节点位置和路由信息分析
测试节点坐标: (X=3, Y=3)
当前节点ID: 27 (binary: 011011)
当前节点分解: Y坐标(bit5:3)=011, X坐标(bit2:0)=011
邻居节点ID:
  - 西侧节点(X=2, Y=3): ID=26
  - 东侧节点(X=4, Y=3): ID=28
  - 南侧节点(X=3, Y=2): ID=19
  - 北侧节点(X=3, Y=4): ID=35
预期路由端口映射:
  - 向西路由(X-1): 端口1 (WEST)
  - 向东路由(X+1): 端口3 (EAST)
  - 向南路由(Y-1): 端口2 (SOUTH)
  - 向北路由(Y+1): 端口0 (NORTH)
  - 本地路由(相同坐标): 端口4 (LOCAL)
==============================================
[INIT DEBUG] Reset phase starting...
=================================================================
[INTERNAL DEBUG] Cycle 0 - Full Internal Signal Analysis:
=================================================================
=== IRS_N Input Signals ===
  irs_input_A: valid_i=0, ready_i=1, valid_o=0, ready_o=1
    payload_i=0x000000, payload_o=0x000000
  irs_input_N: valid_i=0, ready_i=1, valid_o=0, ready_o=1
    payload_i=0x000000, payload_o=0x000000
  irs_input_W: valid_i=0, ready_i=1, valid_o=0, ready_o=1
    payload_i=0x000000, payload_o=0x000000
  irs_input_S: valid_i=0, ready_i=1, valid_o=0, ready_o=1
    payload_i=0x000000, payload_o=0x000000
  irs_input_E: valid_i=0, ready_i=1, valid_o=0, ready_o=1
    payload_i=0x000000, payload_o=0x000000
=== Router Output Signals ===
  route_req_A=0b00000 (N,W,S,E,B), route_pkt_A=0x000000
  route_req_N=0b00000, route_pkt_N=0x000000
  route_req_W=0b00000, route_pkt_W=0x000000
  route_req_S=0b00000, route_pkt_S=0x000000
  route_req_E=0b00000, route_pkt_E=0x000000
=== Arbiter I/O Signals ===
  Arbiter_N: req=0b0000(A,W,S,E), qos=0b0000, gnt=0b0000
  Arbiter_W: req=0b0000(A,N,S,E), qos=0b0000, gnt=0b0000
  Arbiter_S: req=0b0000(A,N,W,E), qos=0b0000, gnt=0b0000
  Arbiter_E: req=0b0000(A,N,W,S), qos=0b0000, gnt=0b0000
  Arbiter_B: req=0b00000(A,N,W,S,E), qos=0b00000, gnt=0b00000
=== Output IRS_N Input Signals ===
  irs_output_N: valid_i=0, ready_o=1, payload_i=0x000000,  valid_o=0, ready_i=1, payload_o=0x000000
  irs_output_W: valid_i=0, ready_o=1, payload_i=0x000000,  valid_o=0, ready_i=1, payload_o=0x000000
  irs_output_S: valid_i=0, ready_o=1, payload_i=0x000000,  valid_o=0, ready_i=1, payload_o=0x000000
  irs_output_E: valid_i=0, ready_o=1, payload_i=0x000000,  valid_o=0, ready_i=1, payload_o=0x000000
  irs_output_B: valid_i=0, ready_o=1, payload_i=0x000000,  valid_o=0, ready_i=1, payload_o=0x000000
=================================================================
=== Node Internal Output Connections ===
  Node.e_out_valid=0, e_out_ready=1, e_out_pkt=0x000000
  External pkt_con_eo_vld=0, pkt_con_eo_rdy=1
  Connection match: vld=1, rdy_match=1
=================================================================
=================================================================
[INTERNAL DEBUG] Cycle 1 - Full Internal Signal Analysis:
=================================================================
=== IRS_N Input Signals ===
  irs_input_A: valid_i=0, ready_i=1, valid_o=0, ready_o=1
    payload_i=0x000000, payload_o=0x000000
  irs_input_N: valid_i=0, ready_i=1, valid_o=0, ready_o=1
    payload_i=0x000000, payload_o=0x000000
  irs_input_W: valid_i=0, ready_i=1, valid_o=0, ready_o=1
    payload_i=0x000000, payload_o=0x000000
  irs_input_S: valid_i=0, ready_i=1, valid_o=0, ready_o=1
    payload_i=0x000000, payload_o=0x000000
  irs_input_E: valid_i=0, ready_i=1, valid_o=0, ready_o=1
    payload_i=0x000000, payload_o=0x000000
=== Router Output Signals ===
  route_req_A=0b00000 (N,W,S,E,B), route_pkt_A=0x000000
  route_req_N=0b00000, route_pkt_N=0x000000
  route_req_W=0b00000, route_pkt_W=0x000000
  route_req_S=0b00000, route_pkt_S=0x000000
  route_req_E=0b00000, route_pkt_E=0x000000
=== Arbiter I/O Signals ===
  Arbiter_N: req=0b0000(A,W,S,E), qos=0b0000, gnt=0b0000
  Arbiter_W: req=0b0000(A,N,S,E), qos=0b0000, gnt=0b0000
  Arbiter_S: req=0b0000(A,N,W,E), qos=0b0000, gnt=0b0000
  Arbiter_E: req=0b0000(A,N,W,S), qos=0b0000, gnt=0b0000
  Arbiter_B: req=0b00000(A,N,W,S,E), qos=0b00000, gnt=0b00000
=== Output IRS_N Input Signals ===
  irs_output_N: valid_i=0, ready_o=1, payload_i=0x000000,  valid_o=0, ready_i=1, payload_o=0x000000
  irs_output_W: valid_i=0, ready_o=1, payload_i=0x000000,  valid_o=0, ready_i=1, payload_o=0x000000
  irs_output_S: valid_i=0, ready_o=1, payload_i=0x000000,  valid_o=0, ready_i=1, payload_o=0x000000
  irs_output_E: valid_i=0, ready_o=1, payload_i=0x000000,  valid_o=0, ready_i=1, payload_o=0x000000
  irs_output_B: valid_i=0, ready_o=1, payload_i=0x000000,  valid_o=0, ready_i=1, payload_o=0x000000
=================================================================
=== Node Internal Output Connections ===
  Node.e_out_valid=0, e_out_ready=1, e_out_pkt=0x000000
  External pkt_con_eo_vld=0, pkt_con_eo_rdy=1
  Connection match: vld=1, rdy_match=1
=================================================================
[INIT DEBUG] Reset completed. Testing node interfaces...
[INIT DEBUG] Initial interface states:
  A_PORT: vld=0, rdy=1
  B_PORT: vld=0, rdy=1
  N_PORT: out_vld=0, out_rdy=1
  W_PORT: out_vld=0, out_rdy=1
  S_PORT: out_vld=0, out_rdy=1
  E_PORT: out_vld=0, out_rdy=1
复位完成，开始基本路由功能测试...

--- N-RF-001: X方向正向路由测试 ---
==============================================
[SEND DEBUG] Cycle 2: STARTING PACKET SEND
  Packet Info: Type=0, QoS=0, Src=27, Tgt=28, Data=0xa5
  Target Direction: Expected output port calculation:
    -> EAST (port 3) - X+ (3 -> 4)
==============================================
[SEND DEBUG] Cycle 2: Before send - pkt_in_rdy=1
[SEND DEBUG] Cycle 2: Packet valid set - waiting for ready...
[SEND SUCCESS] Cycle 2: Packet accepted after 0 cycles
=================================================================
[INTERNAL DEBUG] Cycle 2 - Full Internal Signal Analysis:
=================================================================
=== IRS_N Input Signals ===
  irs_input_A: valid_i=1, ready_i=1, valid_o=0, ready_o=1
    payload_i=0x06dca5, payload_o=0x000000
  irs_input_N: valid_i=0, ready_i=1, valid_o=0, ready_o=1
    payload_i=0x000000, payload_o=0x000000
  irs_input_W: valid_i=0, ready_i=1, valid_o=0, ready_o=1
    payload_i=0x000000, payload_o=0x000000
  irs_input_S: valid_i=0, ready_i=1, valid_o=0, ready_o=1
    payload_i=0x000000, payload_o=0x000000
  irs_input_E: valid_i=0, ready_i=1, valid_o=0, ready_o=1
    payload_i=0x000000, payload_o=0x000000
=== Router Output Signals ===
  route_req_A=0b00000 (N,W,S,E,B), route_pkt_A=0x000000
  route_req_N=0b00000, route_pkt_N=0x000000
  route_req_W=0b00000, route_pkt_W=0x000000
  route_req_S=0b00000, route_pkt_S=0x000000
  route_req_E=0b00000, route_pkt_E=0x000000
=== Arbiter I/O Signals ===
  Arbiter_N: req=0b0000(A,W,S,E), qos=0b0000, gnt=0b0000
  Arbiter_W: req=0b0000(A,N,S,E), qos=0b0000, gnt=0b0000
  Arbiter_S: req=0b0000(A,N,W,E), qos=0b0000, gnt=0b0000
  Arbiter_E: req=0b0000(A,N,W,S), qos=0b0000, gnt=0b0000
  Arbiter_B: req=0b00000(A,N,W,S,E), qos=0b00000, gnt=0b00000
=== Output IRS_N Input Signals ===
  irs_output_N: valid_i=0, ready_o=1, payload_i=0x000000,  valid_o=0, ready_i=1, payload_o=0x000000
  irs_output_W: valid_i=0, ready_o=1, payload_i=0x000000,  valid_o=0, ready_i=1, payload_o=0x000000
  irs_output_S: valid_i=0, ready_o=1, payload_i=0x000000,  valid_o=0, ready_i=1, payload_o=0x000000
  irs_output_E: valid_i=0, ready_o=1, payload_i=0x000000,  valid_o=0, ready_i=1, payload_o=0x000000
  irs_output_B: valid_i=0, ready_o=1, payload_i=0x000000,  valid_o=0, ready_i=1, payload_o=0x000000
=================================================================
=== Node Internal Output Connections ===
  Node.e_out_valid=0, e_out_ready=1, e_out_pkt=0x000000
  External pkt_con_eo_vld=0, pkt_con_eo_rdy=1
  Connection match: vld=1, rdy_match=1
=================================================================
[SEND DEBUG] Cycle 3: Valid signal cleared
[ENCODE_DEBUG] Function inputs: type=0, qos=0, src=27(0b011011), tgt=28(0b011100), data=0xa5
[ENCODE_DEBUG] Function result: 06dca5
[Cycle 3] Waiting for expected output on port 3: 06dca5
=================================================================
[INTERNAL DEBUG] Cycle 3 - Full Internal Signal Analysis:
=================================================================
=== IRS_N Input Signals ===
  irs_input_A: valid_i=0, ready_i=1, valid_o=1, ready_o=1
    payload_i=0x06dca5, payload_o=0x06dca5
  irs_input_N: valid_i=0, ready_i=1, valid_o=0, ready_o=1
    payload_i=0x000000, payload_o=0x000000
  irs_input_W: valid_i=0, ready_i=1, valid_o=0, ready_o=1
    payload_i=0x000000, payload_o=0x000000
  irs_input_S: valid_i=0, ready_i=1, valid_o=0, ready_o=1
    payload_i=0x000000, payload_o=0x000000
  irs_input_E: valid_i=0, ready_i=1, valid_o=0, ready_o=1
    payload_i=0x000000, payload_o=0x000000
=== Router Output Signals ===
  route_req_A=0b01000 (N,W,S,E,B), route_pkt_A=0x06dca5
  route_req_N=0b00000, route_pkt_N=0x000000
  route_req_W=0b00000, route_pkt_W=0x000000
  route_req_S=0b00000, route_pkt_S=0x000000
  route_req_E=0b00000, route_pkt_E=0x000000
=== Arbiter I/O Signals ===
  Arbiter_N: req=0b0000(A,W,S,E), qos=0b0000, gnt=0b0000
  Arbiter_W: req=0b0000(A,N,S,E), qos=0b0000, gnt=0b0000
  Arbiter_S: req=0b0000(A,N,W,E), qos=0b0000, gnt=0b0000
  Arbiter_E: req=0b1000(A,N,W,S), qos=0b0000, gnt=0b1000
  Arbiter_B: req=0b00000(A,N,W,S,E), qos=0b00000, gnt=0b00000
=== Output IRS_N Input Signals ===
  irs_output_N: valid_i=0, ready_o=1, payload_i=0x000000,  valid_o=0, ready_i=1, payload_o=0x000000
  irs_output_W: valid_i=0, ready_o=1, payload_i=0x000000,  valid_o=0, ready_i=1, payload_o=0x000000
  irs_output_S: valid_i=0, ready_o=1, payload_i=0x000000,  valid_o=0, ready_i=1, payload_o=0x000000
  irs_output_E: valid_i=1, ready_o=1, payload_i=0x06dca5,  valid_o=0, ready_i=1, payload_o=0x000000
  irs_output_B: valid_i=0, ready_o=1, payload_i=0x000000,  valid_o=0, ready_i=1, payload_o=0x000000
=================================================================
=== Node Internal Output Connections ===
  Node.e_out_valid=0, e_out_ready=1, e_out_pkt=0x000000
  External pkt_con_eo_vld=0, pkt_con_eo_rdy=1
  Connection match: vld=1, rdy_match=1
=================================================================
=================================================================
[INTERNAL DEBUG] Cycle 4 - Full Internal Signal Analysis:
=================================================================
=== IRS_N Input Signals ===
  irs_input_A: valid_i=0, ready_i=1, valid_o=0, ready_o=1
    payload_i=0x06dca5, payload_o=0x06dca5
  irs_input_N: valid_i=0, ready_i=1, valid_o=0, ready_o=1
    payload_i=0x000000, payload_o=0x000000
  irs_input_W: valid_i=0, ready_i=1, valid_o=0, ready_o=1
    payload_i=0x000000, payload_o=0x000000
  irs_input_S: valid_i=0, ready_i=1, valid_o=0, ready_o=1
    payload_i=0x000000, payload_o=0x000000
  irs_input_E: valid_i=0, ready_i=1, valid_o=0, ready_o=1
    payload_i=0x000000, payload_o=0x000000
=== Router Output Signals ===
  route_req_A=0b00000 (N,W,S,E,B), route_pkt_A=0x06dca5
  route_req_N=0b00000, route_pkt_N=0x000000
  route_req_W=0b00000, route_pkt_W=0x000000
  route_req_S=0b00000, route_pkt_S=0x000000
  route_req_E=0b00000, route_pkt_E=0x000000
=== Arbiter I/O Signals ===
  Arbiter_N: req=0b0000(A,W,S,E), qos=0b0000, gnt=0b0000
  Arbiter_W: req=0b0000(A,N,S,E), qos=0b0000, gnt=0b0000
  Arbiter_S: req=0b0000(A,N,W,E), qos=0b0000, gnt=0b0000
  Arbiter_E: req=0b0000(A,N,W,S), qos=0b0000, gnt=0b0000
  Arbiter_B: req=0b00000(A,N,W,S,E), qos=0b00000, gnt=0b00000
=== Output IRS_N Input Signals ===
  irs_output_N: valid_i=0, ready_o=1, payload_i=0x000000,  valid_o=0, ready_i=1, payload_o=0x000000
  irs_output_W: valid_i=0, ready_o=1, payload_i=0x000000,  valid_o=0, ready_i=1, payload_o=0x000000
  irs_output_S: valid_i=0, ready_o=1, payload_i=0x000000,  valid_o=0, ready_i=1, payload_o=0x000000
  irs_output_E: valid_i=0, ready_o=1, payload_i=0x000000,  valid_o=1, ready_i=1, payload_o=0x06dca5
  irs_output_B: valid_i=0, ready_o=1, payload_i=0x000000,  valid_o=0, ready_i=1, payload_o=0x000000
=================================================================
=== Node Internal Output Connections ===
  Node.e_out_valid=1, e_out_ready=1, e_out_pkt=0x06dca5
  External pkt_con_eo_vld=1, pkt_con_eo_rdy=1
  Connection match: vld=1, rdy_match=1
=================================================================
[ENCODE_DEBUG] Function inputs: type=0, qos=0, src=27(0b011011), tgt=28(0b011100), data=0xa5
[ENCODE_DEBUG] Function result: 06dca5
[OUTPUT MONITOR] Cycle 4: EAST Output detected:
  Raw signals: vld=1, rdy=1, type=0, qos=0, src=27, tgt=28, data=0xa5
  Manual encoded: 06dca5
  Function result: 000000
  Match: 0
[Cycle 5] PASS: Expected output found
=================================================================
[INTERNAL DEBUG] Cycle 5 - Full Internal Signal Analysis:
=================================================================
=== IRS_N Input Signals ===
  irs_input_A: valid_i=0, ready_i=1, valid_o=0, ready_o=1
    payload_i=0x06dca5, payload_o=0x06dca5
  irs_input_N: valid_i=0, ready_i=1, valid_o=0, ready_o=1
    payload_i=0x000000, payload_o=0x000000
  irs_input_W: valid_i=0, ready_i=1, valid_o=0, ready_o=1
    payload_i=0x000000, payload_o=0x000000
  irs_input_S: valid_i=0, ready_i=1, valid_o=0, ready_o=1
    payload_i=0x000000, payload_o=0x000000
  irs_input_E: valid_i=0, ready_i=1, valid_o=0, ready_o=1
    payload_i=0x000000, payload_o=0x000000
=== Router Output Signals ===
  route_req_A=0b00000 (N,W,S,E,B), route_pkt_A=0x06dca5
  route_req_N=0b00000, route_pkt_N=0x000000
  route_req_W=0b00000, route_pkt_W=0x000000
  route_req_S=0b00000, route_pkt_S=0x000000
  route_req_E=0b00000, route_pkt_E=0x000000
=== Arbiter I/O Signals ===
  Arbiter_N: req=0b0000(A,W,S,E), qos=0b0000, gnt=0b0000
  Arbiter_W: req=0b0000(A,N,S,E), qos=0b0000, gnt=0b0000
  Arbiter_S: req=0b0000(A,N,W,E), qos=0b0000, gnt=0b0000
  Arbiter_E: req=0b0000(A,N,W,S), qos=0b0000, gnt=0b0000
  Arbiter_B: req=0b00000(A,N,W,S,E), qos=0b00000, gnt=0b00000
=== Output IRS_N Input Signals ===
  irs_output_N: valid_i=0, ready_o=1, payload_i=0x000000,  valid_o=0, ready_i=1, payload_o=0x000000
  irs_output_W: valid_i=0, ready_o=1, payload_i=0x000000,  valid_o=0, ready_i=1, payload_o=0x000000
  irs_output_S: valid_i=0, ready_o=1, payload_i=0x000000,  valid_o=0, ready_i=1, payload_o=0x000000
  irs_output_E: valid_i=0, ready_o=1, payload_i=0x000000,  valid_o=0, ready_i=1, payload_o=0x06dca5
  irs_output_B: valid_i=0, ready_o=1, payload_i=0x000000,  valid_o=0, ready_i=1, payload_o=0x000000
=================================================================
=== Node Internal Output Connections ===
  Node.e_out_valid=0, e_out_ready=1, e_out_pkt=0x06dca5
  External pkt_con_eo_vld=0, pkt_con_eo_rdy=1
  Connection match: vld=1, rdy_match=1
=================================================================

==============================================
测试总结
==============================================
总测试数: 1
通过测试: 1
失败测试: 0
通过率: 100.00%
✓ 所有基本路由功能测试通过！
TEST_RESULT: PASS
=================================================================
[INTERNAL DEBUG] Cycle 6 - Full Internal Signal Analysis:
=================================================================
=== IRS_N Input Signals ===
  irs_input_A: valid_i=0, ready_i=1, valid_o=0, ready_o=1
    payload_i=0x06dca5, payload_o=0x06dca5
  irs_input_N: valid_i=0, ready_i=1, valid_o=0, ready_o=1
    payload_i=0x000000, payload_o=0x000000
  irs_input_W: valid_i=0, ready_i=1, valid_o=0, ready_o=1
    payload_i=0x000000, payload_o=0x000000
  irs_input_S: valid_i=0, ready_i=1, valid_o=0, ready_o=1
    payload_i=0x000000, payload_o=0x000000
  irs_input_E: valid_i=0, ready_i=1, valid_o=0, ready_o=1
    payload_i=0x000000, payload_o=0x000000
=== Router Output Signals ===
  route_req_A=0b00000 (N,W,S,E,B), route_pkt_A=0x06dca5
  route_req_N=0b00000, route_pkt_N=0x000000
  route_req_W=0b00000, route_pkt_W=0x000000
  route_req_S=0b00000, route_pkt_S=0x000000
  route_req_E=0b00000, route_pkt_E=0x000000
=== Arbiter I/O Signals ===
  Arbiter_N: req=0b0000(A,W,S,E), qos=0b0000, gnt=0b0000
  Arbiter_W: req=0b0000(A,N,S,E), qos=0b0000, gnt=0b0000
  Arbiter_S: req=0b0000(A,N,W,E), qos=0b0000, gnt=0b0000
  Arbiter_E: req=0b0000(A,N,W,S), qos=0b0000, gnt=0b0000
  Arbiter_B: req=0b00000(A,N,W,S,E), qos=0b00000, gnt=0b00000
=== Output IRS_N Input Signals ===
  irs_output_N: valid_i=0, ready_o=1, payload_i=0x000000,  valid_o=0, ready_i=1, payload_o=0x000000
  irs_output_W: valid_i=0, ready_o=1, payload_i=0x000000,  valid_o=0, ready_i=1, payload_o=0x000000
  irs_output_S: valid_i=0, ready_o=1, payload_i=0x000000,  valid_o=0, ready_i=1, payload_o=0x000000
  irs_output_E: valid_i=0, ready_o=1, payload_i=0x000000,  valid_o=0, ready_i=1, payload_o=0x06dca5
  irs_output_B: valid_i=0, ready_o=1, payload_i=0x000000,  valid_o=0, ready_i=1, payload_o=0x000000
=================================================================
=== Node Internal Output Connections ===
  Node.e_out_valid=0, e_out_ready=1, e_out_pkt=0x06dca5
  External pkt_con_eo_vld=0, pkt_con_eo_rdy=1
  Connection match: vld=1, rdy_match=1
=================================================================
=================================================================
[INTERNAL DEBUG] Cycle 7 - Full Internal Signal Analysis:
=================================================================
=== IRS_N Input Signals ===
  irs_input_A: valid_i=0, ready_i=1, valid_o=0, ready_o=1
    payload_i=0x06dca5, payload_o=0x06dca5
  irs_input_N: valid_i=0, ready_i=1, valid_o=0, ready_o=1
    payload_i=0x000000, payload_o=0x000000
  irs_input_W: valid_i=0, ready_i=1, valid_o=0, ready_o=1
    payload_i=0x000000, payload_o=0x000000
  irs_input_S: valid_i=0, ready_i=1, valid_o=0, ready_o=1
    payload_i=0x000000, payload_o=0x000000
  irs_input_E: valid_i=0, ready_i=1, valid_o=0, ready_o=1
    payload_i=0x000000, payload_o=0x000000
=== Router Output Signals ===
  route_req_A=0b00000 (N,W,S,E,B), route_pkt_A=0x06dca5
  route_req_N=0b00000, route_pkt_N=0x000000
  route_req_W=0b00000, route_pkt_W=0x000000
  route_req_S=0b00000, route_pkt_S=0x000000
  route_req_E=0b00000, route_pkt_E=0x000000
=== Arbiter I/O Signals ===
  Arbiter_N: req=0b0000(A,W,S,E), qos=0b0000, gnt=0b0000
  Arbiter_W: req=0b0000(A,N,S,E), qos=0b0000, gnt=0b0000
  Arbiter_S: req=0b0000(A,N,W,E), qos=0b0000, gnt=0b0000
  Arbiter_E: req=0b0000(A,N,W,S), qos=0b0000, gnt=0b0000
  Arbiter_B: req=0b00000(A,N,W,S,E), qos=0b00000, gnt=0b00000
=== Output IRS_N Input Signals ===
  irs_output_N: valid_i=0, ready_o=1, payload_i=0x000000,  valid_o=0, ready_i=1, payload_o=0x000000
  irs_output_W: valid_i=0, ready_o=1, payload_i=0x000000,  valid_o=0, ready_i=1, payload_o=0x000000
  irs_output_S: valid_i=0, ready_o=1, payload_i=0x000000,  valid_o=0, ready_i=1, payload_o=0x000000
  irs_output_E: valid_i=0, ready_o=1, payload_i=0x000000,  valid_o=0, ready_i=1, payload_o=0x06dca5
  irs_output_B: valid_i=0, ready_o=1, payload_i=0x000000,  valid_o=0, ready_i=1, payload_o=0x000000
=================================================================
=== Node Internal Output Connections ===
  Node.e_out_valid=0, e_out_ready=1, e_out_pkt=0x06dca5
  External pkt_con_eo_vld=0, pkt_con_eo_rdy=1
  Connection match: vld=1, rdy_match=1
=================================================================
=================================================================
[INTERNAL DEBUG] Cycle 8 - Full Internal Signal Analysis:
=================================================================
=== IRS_N Input Signals ===
  irs_input_A: valid_i=0, ready_i=1, valid_o=0, ready_o=1
    payload_i=0x06dca5, payload_o=0x06dca5
  irs_input_N: valid_i=0, ready_i=1, valid_o=0, ready_o=1
    payload_i=0x000000, payload_o=0x000000
  irs_input_W: valid_i=0, ready_i=1, valid_o=0, ready_o=1
    payload_i=0x000000, payload_o=0x000000
  irs_input_S: valid_i=0, ready_i=1, valid_o=0, ready_o=1
    payload_i=0x000000, payload_o=0x000000
  irs_input_E: valid_i=0, ready_i=1, valid_o=0, ready_o=1
    payload_i=0x000000, payload_o=0x000000
=== Router Output Signals ===
  route_req_A=0b00000 (N,W,S,E,B), route_pkt_A=0x06dca5
  route_req_N=0b00000, route_pkt_N=0x000000
  route_req_W=0b00000, route_pkt_W=0x000000
  route_req_S=0b00000, route_pkt_S=0x000000
  route_req_E=0b00000, route_pkt_E=0x000000
=== Arbiter I/O Signals ===
  Arbiter_N: req=0b0000(A,W,S,E), qos=0b0000, gnt=0b0000
  Arbiter_W: req=0b0000(A,N,S,E), qos=0b0000, gnt=0b0000
  Arbiter_S: req=0b0000(A,N,W,E), qos=0b0000, gnt=0b0000
  Arbiter_E: req=0b0000(A,N,W,S), qos=0b0000, gnt=0b0000
  Arbiter_B: req=0b00000(A,N,W,S,E), qos=0b00000, gnt=0b00000
=== Output IRS_N Input Signals ===
  irs_output_N: valid_i=0, ready_o=1, payload_i=0x000000,  valid_o=0, ready_i=1, payload_o=0x000000
  irs_output_W: valid_i=0, ready_o=1, payload_i=0x000000,  valid_o=0, ready_i=1, payload_o=0x000000
  irs_output_S: valid_i=0, ready_o=1, payload_i=0x000000,  valid_o=0, ready_i=1, payload_o=0x000000
  irs_output_E: valid_i=0, ready_o=1, payload_i=0x000000,  valid_o=0, ready_i=1, payload_o=0x06dca5
  irs_output_B: valid_i=0, ready_o=1, payload_i=0x000000,  valid_o=0, ready_i=1, payload_o=0x000000
=================================================================
=== Node Internal Output Connections ===
  Node.e_out_valid=0, e_out_ready=1, e_out_pkt=0x06dca5
  External pkt_con_eo_vld=0, pkt_con_eo_rdy=1
  Connection match: vld=1, rdy_match=1
=================================================================
=================================================================
[INTERNAL DEBUG] Cycle 9 - Full Internal Signal Analysis:
=================================================================
=== IRS_N Input Signals ===
  irs_input_A: valid_i=0, ready_i=1, valid_o=0, ready_o=1
    payload_i=0x06dca5, payload_o=0x06dca5
  irs_input_N: valid_i=0, ready_i=1, valid_o=0, ready_o=1
    payload_i=0x000000, payload_o=0x000000
  irs_input_W: valid_i=0, ready_i=1, valid_o=0, ready_o=1
    payload_i=0x000000, payload_o=0x000000
  irs_input_S: valid_i=0, ready_i=1, valid_o=0, ready_o=1
    payload_i=0x000000, payload_o=0x000000
  irs_input_E: valid_i=0, ready_i=1, valid_o=0, ready_o=1
    payload_i=0x000000, payload_o=0x000000
